<?xml version="1.0" encoding="UTF-8" standalone="no"?>
<svg
   style="height: 512px; width: 512px;"
   viewBox="36 36 440 440"
   version="1.1"
   id="svg16"
   sodipodi:docname="dice-six-faces-four.svg"
   inkscape:version="1.2.1 (9c6d41e410, 2022-07-14)"
   xmlns:inkscape="http://www.inkscape.org/namespaces/inkscape"
   xmlns:sodipodi="http://sodipodi.sourceforge.net/DTD/sodipodi-0.dtd"
   xmlns="http://www.w3.org/2000/svg"
   xmlns:svg="http://www.w3.org/2000/svg">
  <defs
     id="defs20" />
  <sodipodi:namedview
     id="namedview18"
     pagecolor="#ffffff"
     bordercolor="#000000"
     borderopacity="0.25"
     inkscape:showpageshadow="2"
     inkscape:pageopacity="0.0"
     inkscape:pagecheckerboard="0"
     inkscape:deskcolor="#d1d1d1"
     showgrid="false"
     inkscape:zoom="1.3081475"
     inkscape:cx="274.43388"
     inkscape:cy="261.82062"
     inkscape:window-width="1920"
     inkscape:window-height="979"
     inkscape:window-x="0"
     inkscape:window-y="0"
     inkscape:window-maximized="1"
     inkscape:current-layer="svg16" />
  <g
     class=""
     transform="translate(0,0)"
     style=""
     id="g14">
    <g
       id="g12">
      <path
         d="M123.47 72.03C150.497 72.825 171.995 94.961 172 122C172 160.49 130.333 184.546 97 165.301C81.53 156.37 72 139.863 72 122C72.005 93.813 95.295 71.201 123.47 72.03Z"
         class=""
         fill="#000000"
         fill-opacity="1"
         id="path4" />
      <path
         d="M391.47 72.03C418.497 72.825 439.995 94.961 440 122C440 160.49 398.333 184.546 365 165.301C349.53 156.37 340 139.863 340 122C340.005 93.813 363.295 71.201 391.47 72.03Z"
         class=""
         fill="#000000"
         fill-opacity="1"
         id="path6" />
      <path
         d="M123.47 340.03C150.497 340.825 171.995 362.961 172 390C172 428.49 130.333 452.546 97 433.301C81.53 424.37 72 407.863 72 390C72.005 361.813 95.295 339.201 123.47 340.03Z"
         class=""
         fill="#000000"
         fill-opacity="1"
         id="path8" />
      <path
         d="M391.47 340.03C418.497 340.825 439.995 362.961 440 390C440 428.49 398.333 452.546 365 433.301C349.53 424.37 340 407.863 340 390C340.005 361.813 363.295 339.201 391.47 340.03Z"
         class="selected"
         fill="#000000"
         fill-opacity="1"
         id="path10" />
    </g>
  </g>
</svg>
