<?xml version="1.0" encoding="UTF-8" standalone="no"?>
<svg
   style="height: 512px; width: 512px;"
   viewBox="36 36 440 440"
   version="1.1"
   id="svg14"
   sodipodi:docname="dice-six-faces-three.svg"
   inkscape:version="1.2.1 (9c6d41e410, 2022-07-14)"
   xmlns:inkscape="http://www.inkscape.org/namespaces/inkscape"
   xmlns:sodipodi="http://sodipodi.sourceforge.net/DTD/sodipodi-0.dtd"
   xmlns="http://www.w3.org/2000/svg"
   xmlns:svg="http://www.w3.org/2000/svg">
  <defs
     id="defs18" />
  <sodipodi:namedview
     id="namedview16"
     pagecolor="#ffffff"
     bordercolor="#000000"
     borderopacity="0.25"
     inkscape:showpageshadow="2"
     inkscape:pageopacity="0.0"
     inkscape:pagecheckerboard="0"
     inkscape:deskcolor="#d1d1d1"
     showgrid="false"
     inkscape:zoom="0.925"
     inkscape:cx="512.43243"
     inkscape:cy="277.2973"
     inkscape:window-width="1920"
     inkscape:window-height="979"
     inkscape:window-x="0"
     inkscape:window-y="0"
     inkscape:window-maximized="1"
     inkscape:current-layer="svg14" />
  <g
     class=""
     transform="translate(0,0)"
     style=""
     id="g12">
    <g
       id="g10">
      <path
         d="M391.47 72.03C418.497 72.825 439.995 94.961 440 122C440 160.49 398.333 184.546 365 165.301C349.53 156.37 340 139.863 340 122C340.005 93.813 363.295 71.201 391.47 72.03Z"
         class=""
         fill="#000000"
         fill-opacity="1"
         id="path4" />
      <path
         d="M256 206C294.49 206 318.546 247.667 299.301 281C290.37 296.47 273.863 306 256 306C217.51 306 193.454 264.333 212.699 231C221.63 215.53 238.137 206 256 206Z"
         class=""
         fill="#000000"
         fill-opacity="1"
         id="path6" />
      <path
         d="M123.47 340.03C150.497 340.825 171.995 362.961 172 390C172 428.49 130.333 452.546 97 433.301C81.53 424.37 72 407.863 72 390C72.005 361.813 95.295 339.201 123.47 340.03Z"
         class="selected"
         fill="#000000"
         fill-opacity="1"
         id="path8" />
    </g>
  </g>
</svg>
