<svg xmlns:inkscape="http://www.inkscape.org/namespaces/inkscape" xmlns:sodipodi="http://sodipodi.sourceforge.net/DTD/sodipodi-0.dtd" xmlns="http://www.w3.org/2000/svg" xmlns:svg="http://www.w3.org/2000/svg" style="height: 512px; width: 512px;" version="1.1" id="svg6" sodipodi:docname="stopwatch.svg" inkscape:version="1.2.1 (9c6d41e410, 2022-07-14)" viewBox="50.25 51 409.53 409.31">
  <defs id="defs10"/>
  <sodipodi:namedview id="namedview8" pagecolor="#ffffff" bordercolor="#000000" borderopacity="0.25" inkscape:showpageshadow="2" inkscape:pageopacity="0.0" inkscape:pagecheckerboard="0" inkscape:deskcolor="#d1d1d1" showgrid="false" inkscape:zoom="1.1241893" inkscape:cx="125.42372" inkscape:cy="287.76292" inkscape:window-width="1920" inkscape:window-height="979" inkscape:window-x="0" inkscape:window-y="0" inkscape:window-maximized="1" inkscape:current-layer="g4"/>
  <g class="" transform="translate(-1,-1)" style="" id="g4">
    <path d="M 256.03,52 C 143.04,52 51.25,143.727 51.25,256.656 c 0,112.93 91.788,204.656 204.78,204.656 112.994,0 204.75,-91.728 204.75,-204.656 C 460.78,143.73 369.025,52 256.03,52 Z m 0,35.625 c 93.42,0 169.126,75.665 169.126,169.03 0,93.368 -75.706,169.564 -169.125,169.564 -93.417,0 -169.155,-76.197 -169.155,-169.564 0,-93.366 75.736,-169.03 169.156,-169.03 z m 76.19,20.28 -72.47,107.5 c 10.67,1.036 20.516,6.045 27.625,13.814 l 44.844,-121.314 z m -85.533,1.064 v 45.31 c 3.077,-0.275 6.196,-0.405 9.344,-0.405 3.155,0 6.263,0.13 9.345,0.406 v -45.31 h -18.688 z m -88.53,36.655 -13.22,13.22 32.063,32.03 c 3.992,-4.784 8.432,-9.198 13.22,-13.188 l -32.064,-32.062 z m 195.75,0 -32.063,32.063 c 4.786,3.99 9.196,8.403 13.187,13.187 l 32.064,-32.03 z m -98.344,81.22 c -2.08,0.01 -4.195,0.243 -6.313,0.686 -16.948,3.544 -27.7,20.005 -24.156,36.94 3.544,16.932 20.02,27.698 36.97,24.155 16.946,-3.543 27.7,-20.004 24.155,-36.938 -3.102,-14.816 -16.104,-24.925 -30.658,-24.843 z M 108.28,247.31 V 266 h 45.314 c -0.278,-3.08 -0.406,-6.192 -0.406,-9.344 0,-3.146 0.13,-6.27 0.406,-9.344 H 108.28 Z m 250.157,0 c 0.277,3.075 0.438,6.197 0.438,9.344 0,3.153 -0.16,6.264 -0.438,9.344 h 45.344 V 247.31 H 358.44 Z m -60.062,6.72 c 0.993,10.522 -1.968,20.742 -7.813,28.937 l 124,19.092 -116.187,-48.03 z m -121.405,68.375 -32.032,32.03 13.218,13.22 32.063,-32.03 c -4.798,-4 -9.253,-8.424 -13.25,-13.22 z m 158.093,0 c -4,4.796 -8.423,9.22 -13.22,13.22 l 32.063,32.03 13.188,-13.22 -32.03,-32.03 z M 246.688,359 v 45.313 h 18.687 V 359 c -3.082,0.278 -6.19,0.438 -9.344,0.438 -3.147,0 -6.25346,-0.438 -9.342,-0.438 z" fill="#000000" fill-opacity="1" id="path2" sodipodi:nodetypes="ssssscssscccccccccscccccccccccccccccccccccccsccccsccccccccccccccccccccccccccssc"/>
  </g>
</svg>