<svg xmlns:inkscape="http://www.inkscape.org/namespaces/inkscape" xmlns:sodipodi="http://sodipodi.sourceforge.net/DTD/sodipodi-0.dtd" xmlns="http://www.w3.org/2000/svg" xmlns:svg="http://www.w3.org/2000/svg" style="height: 512px; width: 512px;" version="1.1" id="svg20" sodipodi:docname="thermometer-cold.svg" inkscape:version="1.2.1 (9c6d41e410, 2022-07-14)" viewBox="86.59 51.35 334.81 406.88">
  <defs id="defs24"/>
  <sodipodi:namedview id="namedview22" pagecolor="#ffffff" bordercolor="#000000" borderopacity="0.25" inkscape:showpageshadow="2" inkscape:pageopacity="0.0" inkscape:pagecheckerboard="0" inkscape:deskcolor="#d1d1d1" showgrid="true" inkscape:zoom="1.1241893" inkscape:cx="167.23162" inkscape:cy="226.38536" inkscape:window-width="1920" inkscape:window-height="979" inkscape:window-x="0" inkscape:window-y="0" inkscape:window-maximized="1" inkscape:current-layer="g16"/>
  <g class="" transform="translate(-1,-1)" style="" id="g18">
    <g id="g16">
      <path id="path464" d="m 244.99805,52.349609 v 66.730471 l -48.26563,-34.130861 -8.05078,16.099611 56.31641,38.1582 v 50.24609 l -13.54297,27.08204 -30.22656,-1.81446 -43.51368,-25.12304 5.11133,-65.17188 -17.9707,-1.07812 -4.57031,56.1875 -37.78907,-23.36524 -8.999996,15.58789 37.789066,23.36524 -43.693363,32.05273 9.917969,15.02344 51.207034,-37.01172 43.51562,25.125 16.6836,25.26758 -16.68555,25.26758 -43.51563,25.125 -51.205074,-37.00977 -9.917969,15.01953 43.695313,32.05274 -37.791016,23.36523 8.999996,15.58789 37.79102,-23.36523 4.57031,56.1875 17.96875,-1.07813 -5.10937,-65.17187 43.51367,-25.12305 30.22656,-1.81445 13.54102,27.08398 v 1.24609 c -0.1514,35.00819 -0.12059,39.82823 -0.11524,49.08204 l -54.20117,38.07617 8.05078,16.09961 46.10156,-34.01172 c 0.0546,9.34539 0.16147,18.77711 0.16407,66.26172 v 0.34765 c 1e-5,0.3039 0.002,0.11282 0.002,0.41993 h 20 v -1.1875 c 0.003,-46.92368 0.11069,-56.2126 0.16602,-65.41993 l 46.0996,34.00977 8.05079,-16.09961 -54.19922,-38.07617 c 0.007,-9.20103 0.0368,-14.31467 -0.11719,-49.92188 -0.001,-0.28836 0.001,-0.11326 0,-0.40429 l 13.53906,-27.08399 30.22852,1.8125 43.51367,25.12305 -5.10937,65.17187 17.96874,1.07813 4.57032,-56.18555 37.79101,23.36328 9,-15.58789 -37.79101,-23.36523 43.69336,-32.05274 -9.91797,-15.01953 -51.20508,37.00977 L 317.76758,281.26953 301.08203,256 l 16.68359,-25.26758 43.51563,-25.125 51.20508,37.01172 9.91797,-15.02148 -43.69141,-32.05274 37.78906,-23.36523 -9,-15.58789 -37.78906,23.36328 -4.57031,-56.18555 -17.9707,1.07813 5.10937,65.17187 -43.51172,25.12305 -30.22656,1.8125 L 265,189.87305 v -50.2461 L 321.31641,101.46875 313.26562,85.369141 265,119.5 V 52.769531 h -0.002 v -0.416015 -0.0039 z"/>
    </g>
  </g>
</svg>