<svg xmlns:inkscape="http://www.inkscape.org/namespaces/inkscape" xmlns:sodipodi="http://sodipodi.sourceforge.net/DTD/sodipodi-0.dtd" xmlns="http://www.w3.org/2000/svg" xmlns:svg="http://www.w3.org/2000/svg" style="height: 512px; width: 512px;" version="1.1" id="svg6" sodipodi:docname="stat-perception.svg" inkscape:version="1.2.1 (9c6d41e410, 2022-07-14)" viewBox="22.34 17.31 472.66 420.94">
  <defs id="defs10"/>
  <sodipodi:namedview id="namedview8" pagecolor="#ffffff" bordercolor="#000000" borderopacity="0.25" inkscape:showpageshadow="2" inkscape:pageopacity="0.0" inkscape:pagecheckerboard="0" inkscape:deskcolor="#d1d1d1" showgrid="false" inkscape:zoom="1.7139007" inkscape:cx="236.30307" inkscape:cy="247.09716" inkscape:window-width="1920" inkscape:window-height="979" inkscape:window-x="0" inkscape:window-y="0" inkscape:window-maximized="1" inkscape:current-layer="g4"/>
  <g class="" transform="translate(-1,-1)" style="" id="g4">
    <path d="m 121.406,18.313 c -57.98,16.562 -98.06,51.613 -98.062,92.28 -0.003,40.518 39.805,75.616 97.437,92.25 -33.653,-22.005 -55.22,-55.224 -55.218,-92.25 0,-37.237 21.85,-70.277 55.844,-92.28 z m 276.531,0 c 33.995,22.003 55.844,55.043 55.844,92.28 0.004,37.026 -21.563,70.245 -55.217,92.25 57.632,-16.634 97.44,-51.732 97.437,-92.25 -0.003,-40.667 -40.082,-75.718 -98.063,-92.28 z M 163.28,41.656 c -43.303,12.368 -73.215,38.565 -73.218,68.938 -0.002,30.26 29.707,56.482 72.75,68.906 -25.135,-16.434 -41.25,-41.255 -41.25,-68.906 0,-27.813 16.328,-52.503 41.72,-68.938 z m 192.782,0 c 25.39,16.435 41.72,41.125 41.72,68.938 0,27.65 -16.115,52.472 -41.25,68.906 43.043,-12.424 72.752,-38.645 72.75,-68.906 -0.004,-30.373 -29.915,-56.57 -73.22,-68.938 z m -101.03,6.813 c -23.457,3.027 -44.22,30.026 -44.22,64.655 0,19.094 6.635,36.007 16.438,47.75 l 10.22,12.25 -19.69,2.938 c -12.834,2.4 -22.282,9.19 -30.25,20.062 -7.965,10.872 -14,25.903 -18.218,43.156 -7.727,31.62 -9.362,38.17 -9.593,71.94 h 41.655 l -1.375,38.655 12.625,89.375 h 100.344 l 9.374,-89.313 -1.406,-38.718 h 39.625 c -0.017,-34.152 -0.373,-41.232 -7.375,-73.095 -3.818,-17.37 -9.612,-32.392 -17.688,-43.156 -8.076,-10.765 -17.99,-17.51 -32.344,-19.72 l -20,-2.47 10.125,-12.624 c 9.38,-11.682 15.69,-28.4 15.69,-47.03 0,-36.92 -23.274,-64.564 -49.095,-64.564 -2.8,0 -4.505,-0.137 -4.844,-0.093 z m -51.438,12.155 c -31.38,8.964 -53.063,27.96 -53.063,49.97 0,21.927 21.53,40.935 52.72,49.936 -18.212,-11.908 -29.875,-29.898 -29.875,-49.936 0.003,-20.153 11.82,-38.06 30.22,-49.97 z m 112.156,0 c 18.398,11.91 30.216,29.816 30.22,49.97 0,20.037 -11.664,38.027 -29.876,49.936 31.19,-9 52.72,-28.008 52.72,-49.936 -0.002,-22.01 -21.686,-41.005 -53.064,-49.97 z" fill="#000000" fill-opacity="1" id="path2" sodipodi:nodetypes="cccccccccscccccscccsccccsccccccccccccccccccsscccsccccccccc"/>
  </g>
</svg>